EGAA_APP:Aldergrove Radar:199.998:AARM:A:EGAA:APP:-:-:4260:4277:N054.39.27.000:W006.13.54.000::
EGAA_F_APP:Aldergrove Director:199.998:AAFM:A:EGAA:APP:-:-:4260:4277:N054.39.27.000:W006.13.54.000::
EGAA_TWR:Aldergrove Tower:199.998:AATM:A:EGAA:TWR:-:-:4260:4277:N054.39.27.000:W006.13.54.000::
EGAA_GND:Aldergrove Ground:199.998:AAGM:A:EGAA:GND:-:-:4260:4277:N054.39.27.000:W006.13.54.000::