;Holding Points
"A1" N053.20.06.812 W002.50.01.393 smrRed
"C" N053.20.02.427 W002.52.00.467 smrRed
"D" N053.20.01.775 W002.51.49.383 smrRed
"E" N053.20.02.578 W002.51.21.517 smrRed
"F" N053.20.04.818 W002.50.34.878 smrRed
"G" N053.20.05.936 W002.50.12.630 smrRed
"K" N053.20.10.332 W002.50.18.019 smrHPTS
"T" N053.20.08.954 W002.51.2.426 smrHPTS
"U" N053.20.07.861 W002.51.16.332 smrHPTS
"V" N053.20.07.154 W002.51.31.582 smrHPTS
"W" N053.20.06.293 W002.51.49.000 smrHPTS
;Stands
"1"	N053.20.12.340 W002.51.15.820 smrWhite
"2"	N053.20.12.177 W002.51.18.904 smrWhite
"3"	N053.20.12.076 W002.51.21.195 smrWhite
"4"	N053.20.11.951 W002.51.23.483 smrWhite
"5"	N053.20.11.833 W002.51.25.784 smrWhite
"6"	N053.20.11.730 W002.51.28.071 smrWhite
"7"	N053.20.11.613 W002.51.30.370 smrWhite
"8"	N053.20.11.509 W002.51.32.658 smrWhite
"9"	N053.20.11.350 W002.51.35.580 smrWhite
"10" N053.20.11.263 W002.51.37.833 smrWhite
"11" N053.20.11.064 W002.51.41.586 smrWhite
"12" N053.20.10.826 W002.51.46.072 smrWhite
"14" N053.20.10.734 W002.51.47.707 smrWhite
"32L" N053.20.09.940 W002.51.14.490 smrWhite
"32C/R"	N053.20.08.910 W002.51.14.360 smrWhite
"33" N053.20.07.790 W002.51.20.920 smrWhite
"34" N053.20.07.690 W002.51.23.260 smrWhite
"35" N053.20.07.580 W002.51.25.610 smrWhite
"36" N053.20.07.470 W002.51.28.331 smrWhite
"37" N053.20.07.396 W002.51.29.966 smrWhite
"39" N053.20.07.200 W002.51.36.540 smrWhite
"40" N053.20.07.080 W002.51.38.941 smrWhite
"41" N053.20.06.890 W002.51.42.641 smrWhite
"51" N053.20.12.210 W002.51.07.860 smrWhite
"52" N053.20.10.670 W002.51.07.720 smrWhite
"53" N053.20.09.080 W002.51.07.330 smrWhite
"54" N053.20.12.726 W002.50.58.200 smrWhite
"55" N053.20.11.257 W002.50.58.000 smrWhite
"56" N053.20.09.500 W002.50.57.600 smrWhite