EGSC Cambridge SMAA         S009.00.00.000 E099.00.00.000 S009.00.00.000 E099.00.00.000
                            N052.00.15.680 E000.11.38.191 N052.02.19.795 E000.11.27.709
                            N052.00.47.101 E000.03.30.490 N052.00.48.502 E000.02.40.591
                            N052.00.47.918 E000.04.33.206 N052.00.47.101 E000.03.30.490
                            N052.00.48.502 E000.02.40.591 N052.00.52.450 E000.01.45.281
                            N052.00.49.987 E000.05.20.922 N052.00.47.918 E000.04.33.206
                            N052.00.52.450 E000.01.45.281 N052.00.58.225 E000.00.57.213
                            N052.00.54.993 E000.06.08.801 N052.00.49.987 E000.05.20.922
                            N052.00.58.225 E000.00.57.213 N052.01.06.488 E000.00.06.908
                            N052.01.02.359 E000.07.01.574 N052.00.54.993 E000.06.08.801
                            N052.01.06.488 E000.00.06.908 N052.01.17.259 W000.00.46.429
                            N052.01.11.245 E000.07.51.255 N052.01.02.359 E000.07.01.574
                            N052.01.17.259 W000.00.46.429 N052.01.29.926 W000.01.36.490
                            N052.01.20.282 E000.08.33.018 N052.01.11.245 E000.07.51.255
                            N052.01.20.282 E000.08.33.018 N052.01.31.273 E000.09.14.883
                            N052.01.29.926 W000.01.36.490 N052.01.44.996 W000.02.24.035
                            N052.01.31.273 E000.09.14.883 N052.01.45.606 E000.10.01.703
                            N052.01.44.996 W000.02.24.035 N052.02.03.019 W000.03.12.207
                            N052.01.45.606 E000.10.01.703 N052.02.01.938 E000.10.46.250
                            N052.01.50.359 E000.08.22.012 N052.01.20.282 E000.08.33.018
                            N052.02.01.938 E000.10.46.250 N052.02.19.795 E000.11.27.709
                            N052.02.03.019 W000.03.12.207 N052.02.20.938 W000.03.54.831
                            N052.02.10.134 E000.08.12.018 N052.01.50.359 E000.08.22.012
                            N052.02.19.795 E000.11.27.709 N052.00.15.680 E000.11.38.191
                            N052.02.19.795 E000.11.27.709 N052.02.40.097 E000.12.09.312
                            N052.02.20.938 W000.03.54.831 N052.02.41.293 W000.04.36.526
                            N052.02.32.935 E000.07.57.430 N052.02.10.134 E000.08.12.018
                            N052.02.40.097 E000.12.09.312 N052.03.01.870 E000.12.50.992
                            N052.02.41.293 W000.04.36.526 N052.03.02.061 W000.05.14.228
                            N052.02.52.825 E000.07.41.096 N052.02.32.935 E000.07.57.430
                            N052.03.01.870 E000.12.50.992 N052.03.28.358 E000.13.42.458
                            N052.03.02.061 W000.05.14.228 N052.03.20.213 W000.05.42.560
                            N052.03.12.756 E000.07.22.385 N052.02.52.825 E000.07.41.096
                            N052.03.20.213 W000.05.42.560 N052.03.30.259 W000.05.56.276
                            N052.03.28.358 E000.13.42.458 N052.03.57.200 E000.14.39.611
                            N052.03.30.259 W000.05.56.276 N052.03.45.542 W000.05.34.792
                            N052.03.37.802 E000.06.52.057 N052.03.12.756 E000.07.22.385
                            N052.03.45.542 W000.05.34.792 N052.04.00.810 W000.05.12.515
                            N052.03.46.838 W000.06.19.142 N052.03.30.259 W000.05.56.276
                            N052.03.57.200 E000.14.39.611 N052.09.29.861 E000.25.20.250
                            N052.03.59.406 E000.06.22.332 N052.03.37.802 E000.06.52.057
                            N052.04.00.810 W000.05.12.515 N052.04.20.725 W000.04.36.492
                            N052.04.06.372 W000.06.42.642 N052.03.46.838 W000.06.19.142
                            N052.04.15.569 E000.05.55.478 N052.03.59.406 E000.06.22.332
                            N052.04.20.725 W000.04.36.492 N052.04.36.281 W000.04.03.092
                            N052.04.26.364 W000.07.04.521 N052.04.06.372 W000.06.42.642
                            N052.04.33.375 E000.05.19.192 N052.04.15.569 E000.05.55.478
                            N052.04.36.281 W000.04.03.092 N052.04.49.375 W000.03.29.036
                            N052.04.47.807 W000.07.25.531 N052.04.26.364 W000.07.04.521
                            N052.04.49.375 W000.03.29.036 N052.05.00.973 W000.02.53.481
                            N052.04.50.807 E000.04.36.539 N052.04.33.375 E000.05.19.192
                            N052.05.00.973 W000.02.53.481 N052.05.11.490 W000.02.12.431
                            N052.05.02.754 E000.03.59.133 N052.04.50.807 E000.04.36.539
                            N052.05.03.742 W000.07.39.708 N052.05.25.605 W000.07.56.724
                            N052.05.03.742 W000.07.39.708 N052.04.47.807 W000.07.25.531
                            N052.05.11.490 W000.02.12.431 N052.05.20.837 W000.01.21.134
                            N052.05.13.336 E000.03.16.099 N052.05.02.754 E000.03.59.133
                            N052.05.19.887 E000.02.39.179 N052.05.13.336 E000.03.16.099
                            N052.05.20.564 W000.07.22.104 N052.05.03.742 W000.07.39.708
                            N052.05.20.837 W000.01.21.134 N052.05.26.838 W000.00.33.993
                            N052.05.25.605 W000.07.56.724 N052.05.48.429 W000.08.12.896
                            N052.05.26.079 E000.01.55.100 N052.05.19.887 E000.02.39.179
                            N052.05.26.838 W000.00.33.993 N052.05.29.366 E000.00.15.332
                            N052.05.29.366 E000.00.15.332 N052.05.29.477 E000.01.02.935
                            N052.05.29.477 E000.01.02.935 N052.05.26.079 E000.01.55.100
                            N052.05.42.250 W000.07.02.639 N052.05.20.564 W000.07.22.104
                            N052.05.48.429 W000.08.12.896 N052.06.13.676 W000.08.27.343
                            N052.06.04.514 W000.06.47.901 N052.05.42.250 W000.07.02.639
                            N052.06.13.676 W000.08.27.343 N052.06.39.379 W000.08.40.176
                            N052.06.28.288 W000.06.35.460 N052.06.04.514 W000.06.47.901
                            N052.06.39.379 W000.08.40.176 N052.07.07.502 W000.08.51.290
                            N052.06.50.160 W000.06.26.297 N052.06.28.288 W000.06.35.460
                            N052.07.07.502 W000.08.51.290 N052.07.40.975 W000.09.00.518
                            N052.07.10.153 W000.06.21.206 N052.06.50.160 W000.06.26.297
                            N052.07.36.548 W000.06.18.140 N052.07.10.153 W000.06.21.206
                            N052.07.40.975 W000.09.00.518 N052.08.13.891 W000.09.05.806
                            N052.07.56.120 W000.06.17.037 N052.07.36.548 W000.06.18.140
                            N052.08.13.891 W000.09.05.806 N052.08.47.221 W000.09.07.104
                            N052.08.20.154 W000.06.18.864 N052.07.56.120 W000.06.17.037
                            N052.08.41.310 W000.06.24.017 N052.08.20.154 W000.06.18.864
                            N052.08.47.221 W000.09.07.104 N052.09.19.518 W000.09.05.290
                            N052.09.02.004 W000.06.30.788 N052.08.41.310 W000.06.24.017
                            N052.09.19.518 W000.09.05.290 N052.09.48.819 W000.09.00.474
                            N052.09.23.737 W000.06.40.676 N052.09.02.004 W000.06.30.788
                            N052.09.44.548 W000.06.53.783 N052.09.23.737 W000.06.40.676
                            N052.09.46.880 E000.25.53.730 N052.09.29.861 E000.25.20.250
                            N052.09.48.819 W000.09.00.474 N052.10.14.178 W000.08.54.289
                            N052.10.04.410 W000.07.08.534 N052.09.44.548 W000.06.53.783
                            N052.10.10.165 E000.26.33.117 N052.09.46.880 E000.25.53.730
                            N052.10.14.178 W000.08.54.289 N052.10.43.851 W000.08.43.100
                            N052.10.22.332 W000.07.24.189 N052.10.04.410 W000.07.08.534
                            N052.10.34.960 E000.27.10.207 N052.10.10.165 E000.26.33.117
                            N052.10.38.808 W000.07.41.509 N052.10.22.332 W000.07.24.189
                            N052.10.43.851 W000.08.43.100 N052.11.12.490 W000.08.28.800
                            N052.10.54.325 W000.07.59.673 N052.10.38.808 W000.07.41.509
                            N052.10.58.404 E000.27.40.878 N052.10.34.960 E000.27.10.207
                            N052.11.05.869 W000.08.14.891 N052.10.54.325 W000.07.59.673
                            N052.11.12.490 W000.08.28.800 N052.11.05.869 W000.08.14.891
                            N052.11.22.864 E000.28.09.224 N052.10.58.404 E000.27.40.878
                            N052.11.26.248 W000.11.39.212 N052.11.33.831 W000.08.17.288
                            N052.11.33.831 W000.08.17.288 N052.11.26.248 W000.11.39.212
                            N052.11.33.831 W000.08.17.288 N052.11.12.490 W000.08.28.800
                            N052.11.55.117 E000.28.40.388 N052.11.22.864 E000.28.09.224
                            N052.12.06.256 W000.07.55.633 N052.11.33.831 W000.08.17.288
                            N052.12.22.142 E000.29.02.532 N052.11.55.117 E000.28.40.388
                            N052.12.41.956 W000.07.25.862 N052.12.06.256 W000.07.55.633
                            N052.12.58.408 E000.29.28.370 N052.13.05.544 E000.32.47.888
                            N052.12.58.408 E000.29.28.370 N052.12.22.142 E000.29.02.532
                            N052.13.05.544 E000.32.47.888 N052.12.58.408 E000.29.28.370
                            N052.13.10.350 W000.06.58.087 N052.12.41.956 W000.07.25.862
                            N052.13.21.678 E000.29.41.578 N052.12.58.408 E000.29.28.370
                            N052.13.36.256 W000.06.28.076 N052.13.10.350 W000.06.58.087
                            N052.13.54.230 E000.29.56.099 N052.13.21.678 E000.29.41.578
                            N052.14.00.661 W000.05.56.557 N052.13.36.256 W000.06.28.076
                            N052.14.16.879 W000.05.32.638 N052.14.00.661 W000.05.56.557
                            N052.14.28.293 E000.30.08.325 N052.13.54.230 E000.29.56.099
                            N052.14.41.599 W000.04.51.585 N052.14.16.879 W000.05.32.638
                            N052.14.53.667 E000.30.13.717 N052.14.28.293 E000.30.08.325
                            N052.15.06.694 W000.04.04.166 N052.14.41.599 W000.04.51.585
                            N052.15.21.516 E000.30.17.661 N052.14.53.667 E000.30.13.717
                            N052.15.37.447 W000.03.04.524 N052.15.06.694 W000.04.04.166
                            N052.15.46.471 E000.30.19.065 N052.15.21.516 E000.30.17.661
                            N052.03.41.000 E000.13.58.000 N052.10.45.999 E000.06.58.000
                            N052.10.45.999 E000.06.58.000 N052.14.56.000 E000.15.04.999
                            N052.14.56.000 E000.15.04.999 N052.16.10.980 E000.30.18.060
                            N052.16.10.980 E000.30.18.060 N052.15.46.471 E000.30.19.065
                            N052.16.10.980 E000.30.18.060 N052.16.38.455 E000.30.15.637
                            N052.16.38.455 E000.30.15.637 N052.17.08.460 E000.30.08.599
                            N052.17.08.460 E000.30.08.599 N052.17.39.993 E000.29.58.468
                            N052.17.39.993 E000.29.58.468 N052.18.09.614 E000.29.45.853
                            N052.18.09.614 E000.29.45.853 N052.18.38.799 E000.29.30.043
                            N052.18.38.799 E000.29.30.043 N052.19.13.024 E000.29.06.578
                            N052.19.13.024 E000.29.06.578 N052.19.48.847 E000.28.36.069
                            N052.19.48.847 E000.28.36.069 N052.20.16.294 E000.28.08.259
                            N052.20.16.294 E000.28.08.259 N052.20.34.791 E000.27.47.874
                            N052.20.34.791 E000.27.47.874 N052.20.56.871 E000.27.18.971
                            N052.20.56.871 E000.27.18.971 N052.21.21.008 E000.26.44.630
                            N052.21.21.008 E000.26.44.630 N052.21.40.221 E000.26.11.598
                            N052.21.40.221 E000.26.11.598 N052.22.00.994 E000.25.33.889
                            N052.21.41.334 E000.08.36.570 N052.15.37.447 W000.03.04.524
                            N052.21.57.897 E000.09.08.438 N052.21.41.334 E000.08.36.570
                            N052.22.00.994 E000.25.33.889 N052.22.19.836 E000.24.54.493
                            N052.22.13.453 E000.09.41.838 N052.24.17.582 E000.09.30.566
                            N052.22.13.453 E000.09.41.838 N052.21.57.897 E000.09.08.438
                            N052.22.19.836 E000.24.54.493 N052.22.39.841 E000.24.04.844
                            N052.22.32.231 E000.10.26.524 N052.22.13.453 E000.09.41.838
                            N052.22.39.841 E000.24.04.844 N052.22.54.325 E000.23.22.820
                            N052.22.46.245 E000.11.03.802 N052.22.32.231 E000.10.26.524
                            N052.22.54.325 E000.23.22.820 N052.23.06.863 E000.22.39.896
                            N052.22.58.762 E000.11.42.584 N052.22.46.245 E000.11.03.802
                            N052.23.06.863 E000.22.39.896 N052.23.17.413 E000.21.58.442
                            N052.23.12.115 E000.12.29.346 N052.22.58.762 E000.11.42.584
                            N052.23.17.413 E000.21.58.442 N052.23.28.182 E000.21.05.103
                            N052.23.22.074 E000.13.14.331 N052.23.12.115 E000.12.29.346
                            N052.23.28.182 E000.21.05.103 N052.23.36.447 E000.20.14.793
                            N052.23.32.329 E000.14.09.646 N052.23.22.074 E000.13.14.331
                            N052.23.36.447 E000.20.14.793 N052.23.42.337 E000.19.20.388
                            N052.23.39.319 E000.14.56.049 N052.23.32.329 E000.14.09.646
                            N052.23.42.337 E000.19.20.388 N052.23.46.138 E000.18.33.002
                            N052.23.44.253 E000.15.47.890 N052.23.39.319 E000.14.56.049
                            N052.23.46.138 E000.18.33.002 N052.23.48.145 E000.17.36.792
                            N052.23.47.140 E000.16.44.378 N052.23.44.253 E000.15.47.890
                            N052.23.48.145 E000.17.36.792 N052.23.47.140 E000.16.44.378
                            N052.24.17.582 E000.09.30.566 N052.22.13.453 E000.09.41.838
                            N052.10.04.994 E000.09.28.276 N052.11.53.833 E000.06.49.641
                            N052.11.53.833 E000.06.49.641 N052.08.02.610 W000.04.22.675
                            N052.08.02.610 W000.04.22.675 N052.04.08.446 E000.00.29.544
                            N052.04.08.446 E000.00.29.544 N052.10.04.994 E000.09.28.273