CIRCLE_SECTORLINE:NMTWR:EGNM:2.5
DISPLAY:NMAPP:NMAPP:NMTWR
DISPLAY:NMTWR:NMAPP:NMTWR

SECTORLINE:NMAPP
DISPLAY:Scottish PC East:Scottish PC East:NMAPP
DISPLAY:NMAPP:Scottish PC East:Scottish PC East
COORD:N054.02.36.000:W001.49.00.000
COORD:N053.59.55.000:W001.40.27.000
COORD:N053.53.48.000:W001.31.00.000
COORD:N053.44.45.000:W001.23.27.000
COORD:N053.40.07.000:W001.19.37.000
COORD:N053.37.13.000:W001.48.30.000
COORD:N053.47.26.000:W001.59.13.000
COORD:N053.55.39.000:W002.09.19.000
COORD:N054.02.36.000:W001.49.00.000