SID:EGKK:26L:ADMAG1X:KKW04 KKN06 KKE14 SUNAV ADMAG
SID:EGKK:08R:BIG1Z:KKE02 KKE10 KKE17 KKE23 BIG
SID:EGKK:26L:BIG1X:KKW04 KKN06 KKE14 SUNAV KKE38 BIG
SID:EGKK:08R:BIG3P:TUNBY DVR33 BIG
SID:EGKK:08L:BIG3W:D211L TUNBY DVR33 BIG
SID:EGKK:26L:BIG7M:D260C DET31 DET29 ACORN D124R BIG
SID:EGKK:26R:BIG7V:D262C DET31 DET29 ACORN D124R BIG
SID:EGKK:26L:BOGNA1X:KKW06 KKW08 KKS11 KKS17 KKS20 KKS25 BOGNA
SID:EGKK:26L:BOGNA1M:D259E D070K D177M D177R D177W OCK28 BOGNA
SID:EGKK:26R:BOGNA1V:D259D D070K D177M D177R D177W OCK28 BOGNA
SID:EGKK:08R:CLN1Z:KKE02 KKE10 KKE17 KKE25 DET KKN52 DAGGA CLN
SID:EGKK:26L:CLN3X:KKW04 KKN06 KKE14 SUNAV KKE42 DET KKN52 DAGGA CLN
SID:EGKK:08R:CLN5P:D078C TUNBY DVR31 DET D014E DAGGA CLN
SID:EGKK:08L:CLN5W:D211L TUNBY DVR31 DET D014E DAGGA CLN
SID:EGKK:26L:CLN8M:D260C DET31 DET29 ACORN DV31A DET D014E DAGGA CLN
SID:EGKK:26R:CLN8V:D262C DET31 DET29 ACORN DV31A DET D014E DAGGA CLN
SID:EGKK:26L:DAGGA1X:KKW04 KKS06 KKS09 KKS14 MAY KKS36 DET DAGGA CLN
SID:EGKK:26L:DAGGA1M:D260C D284M D284I MAY TIGER DET DAGGA CLN
SID:EGKK:26R:DAGGA1V:D262C D284M D284I MAY TIGER DET DAGGA CLN
SID:EGKK:08R:DVR2P:D078C TUNBY DVR33 DVR
SID:EGKK:08L:DVR2W:D211L TUNBY DVR33 DVR
SID:EGKK:26L:DVR8M:D260C DET31 DET29 ACORN D224F DVR
SID:EGKK:26R:DVR8V:D262C DET31 DET29 ACORN D224F DVR
SID:EGKK:26L:HARDY1X:KKW06 KKW08 KKS11 KKS17 KKS20 KKS25 BOGNA HARDY
SID:EGKK:26L:HARDY5M:D259E D070K D177M D177R D177W OCK28 BOGNA HARDY
SID:EGKK:26R:HARDY5V:D259D D070K D177M D177R D177W OCK28 BOGNA HARDY
SID:EGKK:08R:KENET1Z:KKE05 KKN09 KKW19 KKW26 KKW44 KENET
SID:EGKK:26L:KENET1X:KKW07 KKW09 MID KKW28 KENET
SID:EGKK:26L:KENET2M:D259E MID KENET
SID:EGKK:26R:KENET2V:D259D MID KENET
SID:EGKK:08R:KENET3P:D079C DET26 DET36 DET43 D068T KENET
SID:EGKK:08L:KENET3W:D076D DET26 DET36 DET43 D068T KENET
SID:EGKK:08R:LAM1Z:KKE02 KKE12 SUNAV KKE35 KKN43 KKN48 LAM
SID:EGKK:26L:LAM1X:KKW04 KKN06 KKE14 SUNAV KKE35 KKN43 KKN48 LAM
SID:EGKK:26L:LAM4M:D260C DET31 DET29 ACORN D260J D158O D158J LAM
SID:EGKK:26R:LAM4V:D262C DET31 DET29 ACORN D260J D158O D158J LAM
SID:EGKK:08R:LAM5P:D079E D260T ACORN D260J D158O D158J LAM
SID:EGKK:08L:LAM5W:D080E D260T ACORN D260J D158O D158J LAM
SID:EGKK:08R:ODVIK1Z:KKE02 KKE10 KKE17 ODVIK
SID:EGKK:08R:SAM3Z:KKE05 KKN09 KKW19 KKW26 SAM
SID:EGKK:26L:SAM1X:KKW07 KKW09 MID SAM
SID:EGKK:26L:SAM2M:D259E MID SAM
SID:EGKK:26R:SAM2V:D259D MID SAM
SID:EGKK:08R:SAM3P:D079C DET26 DET36 DET43 SAM
SID:EGKK:08L:SAM3W:D076D DET26 DET36 DET43 SAM
SID:EGKK:08R:SFD4Z:KKE03 KKS08 KKS12 KKS16 KKS22 SFD
SID:EGKK:26L:SFD1X:KKW06 KKW10 KKW11 KKS13 KKS19 SFD
SID:EGKK:26L:SFD5M:D259E D259G D312Y D312R D312P SFD
SID:EGKK:26R:SFD5V:D259D D259G D312Y D312R D312P SFD
SID:EGKK:08R:SFD9P:D318L D344U D344M D344G SFD
SID:EGKK:08L:SFD9W:D076C D344U D344M D344G SFD
SID:EGKK:26L:TIGER1X:KKW04 KKS06 KKS09 KKS14 MAY KKS36 LAM
SID:EGKK:26L:TIGER3M:D260C D284M D284I MAY TIGER LAM
SID:EGKK:26R:TIGER3V:D262C D284M D284I MAY TIGER LAM
SID:EGKK:26L:#TIGER2M:IWW23 MAY13 MAY9 MAY TIGER LAM
SID:EGKK:26R:#TIGER2M:IWW23 MAY13 MAY9 MAY TIGER LAM
SID:EGKK:26L:#TIGER2V:IWW23 MAY13 MAY9 MAY TIGER DAGGA CLN
SID:EGKK:26R:#TIGER2V:IWW23 MAY13 MAY9 MAY TIGER DAGGA CLN
SID:EGKK:26L:WIZAD1X:KKW04 KKS06 KKS09 KKS14 MAY KKS33 WIZAD
SID:EGKK:26L:WIZAD4M:D260C D284M D284I MAY DVR35 WIZAD
SID:EGKK:26R:WIZAD4V:D262C D284M D284I MAY DVR35 WIZAD