;EGP106
EGP106     N051.34.30.000 W001.15.51.917 N051.34.50.838 W001.15.54.851
EGP106     N051.34.50.838 W001.15.54.851 N051.35.01.058 W001.15.58.496
EGP106     N051.35.01.058 W001.15.58.496 N051.35.11.042 W001.16.03.562
EGP106     N051.35.11.042 W001.16.03.562 N051.35.20.714 W001.16.10.008
EGP106     N051.35.20.714 W001.16.10.008 N051.35.30.000 W001.16.17.786
EGP106     N051.35.30.000 W001.16.17.786 N051.35.38.829 W001.16.26.836
EGP106     N051.35.38.829 W001.16.26.836 N051.35.47.135 W001.16.37.090
EGP106     N051.35.47.135 W001.16.37.090 N051.35.54.853 W001.16.48.470
EGP106     N051.35.54.853 W001.16.48.470 N051.36.01.925 W001.17.00.889
EGP106     N051.36.01.925 W001.17.00.889 N051.36.08.298 W001.17.14.253
EGP106     N051.36.08.298 W001.17.14.253 N051.36.13.923 W001.17.28.459
EGP106     N051.36.13.923 W001.17.28.459 N051.36.18.757 W001.17.43.401
EGP106     N051.36.18.757 W001.17.43.401 N051.36.22.763 W001.17.58.963
EGP106     N051.36.22.763 W001.17.58.963 N051.36.25.911 W001.18.15.028
EGP106     N051.36.25.911 W001.18.15.028 N051.36.28.177 W001.18.31.473
EGP106     N051.36.28.177 W001.18.31.473 N051.36.29.543 W001.18.48.173
EGP106     N051.36.29.543 W001.18.48.173 N051.36.30.000 W001.19.05.002
EGP106     N051.36.30.000 W001.19.05.002 N051.36.29.543 W001.19.21.830
EGP106     N051.36.29.543 W001.19.21.830 N051.36.28.177 W001.19.38.530
EGP106     N051.36.28.177 W001.19.38.530 N051.36.25.911 W001.19.54.976
EGP106     N051.36.25.911 W001.19.54.976 N051.36.22.763 W001.20.11.040
EGP106     N051.36.22.763 W001.20.11.040 N051.36.18.757 W001.20.26.603
EGP106     N051.36.18.757 W001.20.26.603 N051.36.13.923 W001.20.41.544
EGP106     N051.36.13.923 W001.20.41.544 N051.36.08.298 W001.20.55.750
EGP106     N051.36.08.298 W001.20.55.750 N051.36.01.925 W001.21.09.114
EGP106     N051.36.01.925 W001.21.09.114 N051.35.54.853 W001.21.21.533
EGP106     N051.35.54.853 W001.21.21.533 N051.35.47.135 W001.21.32.913
EGP106     N051.35.47.135 W001.21.32.913 N051.35.38.829 W001.21.43.167
EGP106     N051.35.38.829 W001.21.43.167 N051.35.30.000 W001.21.52.218
EGP106     N051.35.30.000 W001.21.52.218 N051.35.20.714 W001.21.59.996
EGP106     N051.35.20.714 W001.21.59.996 N051.35.11.042 W001.22.06.442
EGP106     N051.35.11.042 W001.22.06.442 N051.35.01.058 W001.22.11.507
EGP106     N051.35.01.058 W001.22.11.507 N051.34.50.838 W001.22.15.153
EGP106     N051.34.50.838 W001.22.15.153 N051.34.40.459 W001.22.17.351
EGP106     N051.34.40.459 W001.22.17.351 N051.34.30.000 W001.22.18.086
EGP106     N051.34.30.000 W001.22.18.086 N051.34.19.541 W001.22.17.351
EGP106     N051.34.19.541 W001.22.17.351 N051.34.09.162 W001.22.15.153
EGP106     N051.34.09.162 W001.22.15.153 N051.33.58.942 W001.22.11.507
EGP106     N051.33.58.942 W001.22.11.507 N051.33.48.958 W001.22.06.442
EGP106     N051.33.48.958 W001.22.06.442 N051.33.39.286 W001.21.59.996
EGP106     N051.33.39.286 W001.21.59.996 N051.33.30.000 W001.21.52.218
EGP106     N051.33.30.000 W001.21.52.218 N051.33.21.171 W001.21.43.167
EGP106     N051.33.21.171 W001.21.43.167 N051.33.12.865 W001.21.32.913
EGP106     N051.33.12.865 W001.21.32.913 N051.33.05.147 W001.21.21.533
EGP106     N051.33.05.147 W001.21.21.533 N051.32.58.075 W001.21.09.114
EGP106     N051.32.58.075 W001.21.09.114 N051.32.51.702 W001.20.55.750
EGP106     N051.32.51.702 W001.20.55.750 N051.32.46.077 W001.20.41.544
EGP106     N051.32.46.077 W001.20.41.544 N051.32.41.243 W001.20.26.603
EGP106     N051.32.41.243 W001.20.26.603 N051.32.37.237 W001.20.11.040
EGP106     N051.32.37.237 W001.20.11.040 N051.32.34.089 W001.19.54.976
EGP106     N051.32.34.089 W001.19.54.976 N051.32.31.823 W001.19.38.530
EGP106     N051.32.31.823 W001.19.38.530 N051.32.30.457 W001.19.21.830
EGP106     N051.32.30.457 W001.19.21.830 N051.32.30.000 W001.19.05.002
EGP106     N051.32.30.000 W001.19.05.002 N051.32.30.457 W001.18.48.173
EGP106     N051.32.30.457 W001.18.48.173 N051.32.31.823 W001.18.31.473
EGP106     N051.32.31.823 W001.18.31.473 N051.32.34.089 W001.18.15.028
EGP106     N051.32.34.089 W001.18.15.028 N051.32.37.237 W001.17.58.963
EGP106     N051.32.37.237 W001.17.58.963 N051.32.41.243 W001.17.43.401
EGP106     N051.32.41.243 W001.17.43.401 N051.32.46.077 W001.17.28.459
EGP106     N051.32.46.077 W001.17.28.459 N051.32.51.702 W001.17.14.253
EGP106     N051.32.51.702 W001.17.14.253 N051.32.58.075 W001.17.00.889
EGP106     N051.32.58.075 W001.17.00.889 N051.33.05.147 W001.16.48.470
EGP106     N051.33.05.147 W001.16.48.470 N051.33.12.865 W001.16.37.090
EGP106     N051.33.12.865 W001.16.37.090 N051.33.21.171 W001.16.26.836
EGP106     N051.33.21.171 W001.16.26.836 N051.33.30.000 W001.16.17.786
EGP106     N051.33.30.000 W001.16.17.786 N051.33.39.286 W001.16.10.008
EGP106     N051.33.39.286 W001.16.10.008 N051.33.48.958 W001.16.03.562
EGP106     N051.33.48.958 W001.16.03.562 N051.33.58.942 W001.15.58.496
EGP106     N051.33.58.942 W001.15.58.496 N051.34.09.162 W001.15.54.851
EGP106     N051.34.09.162 W001.15.54.851 N051.34.19.541 W001.15.52.652
EGP106     N051.34.19.541 W001.15.52.652 N051.34.30.000 W001.15.51.917
EGP106     N051.34.30.000 W001.15.51.917 N051.34.30.000 W001.15.51.917