London AC Dover           S999.00.00.000 E999.00.00.000 S999.00.00.000 E999.00.00.000
                          N051.40.14.600 W000.45.46.000 N051.42.55.900 W000.33.54.000 ;LCS3
                          N051.42.55.900 W000.33.54.000 N051.48.04.000 W000.11.14.000 ;LCSD1
                          N051.56.19.000 W000.07.48.000 N051.48.04.000 W000.11.14.000 ;LCSD2
                          N051.56.19.000 W000.07.48.000 N051.48.01.000 E000.00.08.000 ;LTC5
                          N051.48.01.000 E000.00.08.000 N051.42.22.000 E000.09.04.000
                          N051.42.22.000 E000.09.04.000 N051.27.15.000 E000.33.00.000 ;LESD1
                          N051.27.15.000 E000.33.00.000 N051.26.47.000 E000.49.60.000 ;LED1
                          N051.26.47.000 E000.49.60.000 N051.26.58.000 E000.55.32.000
                          N051.26.58.000 E000.55.32.000 N051.24.24.000 E001.37.27.000
                          N051.24.24.000 E001.37.27.000 N051.23.00.000 E001.59.60.000
                          N051.23.00.000 E002.00.00.000 N051.07.00.000 E001.59.60.000 ;LDBU1
                          N051.07.00.000 E001.59.60.000 N051.06.60.000 E001.59.60.000 ;LDFF1
                          N051.06.60.000 E001.59.60.000 N051.00.00.000 E001.27.60.000
                          N051.00.00.000 E001.27.60.000 N050.54.19.000 E001.27.54.000
                          N050.25.17.000 E000.49.17.000 N050.39.60.000 E001.27.60.000 ;LDM1
                          N050.54.19.000 E001.27.54.000 N050.39.60.000 E001.27.60.000 ;LDM2
                          N050.54.19.000 E001.27.54.000 N050.42.44.000 E001.44.05.000 ;LDM3
                          N050.42.44.000 E001.44.05.000 N050.36.06.000 E001.32.18.000
                          N050.39.60.000 E001.27.60.000 N050.36.06.000 E001.32.18.000 ;LDM4
                          N050.36.06.000 E001.32.18.000 N050.13.46.000 E001.57.06.000 ;LDM5
                          N050.13.46.000 E001.57.06.000 N050.10.17.000 E001.51.31.000
                          N050.03.31.000 E001.39.06.000 N050.10.17.000 E001.51.31.000 ;LDM7
                          N049.56.56.000 E001.27.09.000 N050.03.31.000 E001.39.06.000 ;LDM8
                          N049.58.41.000 E001.19.44.000 N049.55.19.000 E001.24.12.000 ;LDM9
                          N049.55.19.000 E001.24.12.000 N049.56.56.000 E001.27.09.000
                          N050.24.05.000 E000.46.11.000 N049.58.41.000 E001.19.44.000 ;LDM10
                          N050.24.05.000 E000.46.11.000 N050.25.17.000 E000.49.17.000 ;LDM16
                          N051.08.53.000 W000.11.25.000 N050.50.57.000 E000.11.55.000 ;LSD2
                          N050.50.57.000 E000.11.55.000 N050.44.14.000 E000.20.34.000
                          N050.44.14.000 E000.20.34.000 N050.24.05.000 E000.46.11.000
                          N051.18.17.000 W000.26.47.000 N051.08.53.000 W000.11.25.000 ;LTC15a
                          N051.29.04.000 W000.27.53.000 N051.18.17.000 W000.26.47.000 ;LTC18
                          N051.40.14.600 W000.45.46.000 N051.29.04.000 W000.27.53.000 ;LSD1
                          N051.08.53.000 W000.11.25.000 N051.17.51.000 E000.10.10.000 ;LTC28
                          N051.17.51.000 E000.10.10.000 N051.27.15.000 E000.32.60.000
                          N050.44.24.000 E000.23.10.000 N050.40.00.000 E000.29.60.000 ;LTC33
                          N050.40.00.000 E000.29.60.000 N050.53.14.000 E001.08.22.000
                          N051.07.03.000 E000.45.41.000 N050.57.23.000 E001.02.33.000 ;LTC34
                          N050.57.23.000 E001.02.33.000 N050.53.14.000 E001.08.22.000
                          N051.00.00.000 E001.27.60.000 N050.53.14.000 E001.08.22.000 ;LTC35
                          N051.24.24.000 E001.37.27.000 N051.18.25.000 E001.35.18.000 ;LTC36
                          N051.18.25.000 E001.35.18.000 N051.00.00.000 E001.27.60.000
                          N051.26.17.000 E001.07.24.000 N051.24.24.000 E001.37.27.000 ;LTC37
                          N051.26.17.000 E001.07.24.000 N051.18.12.000 E000.49.03.000 ;LTC10b
                          N051.18.12.000 E000.49.03.000 N051.07.03.000 E000.45.41.000
                          N050.44.14.000 E000.20.34.000 N050.44.24.000 E000.23.10.000 ;LTC14